…
``` r
# install.packages("devtools")
devtools::install_github("tomasbarcellos/moto")
```

## Exemplo

Ao carregar o pacote as tabelas principais ficam disponíveis.

``` r
library(moto)
library(tibble) # só para imprimir bonito aqui
#> Warning: package 'tibble' was built under R version 3.5.2
moto1
#> # A tibble: 11,044 x 9
#>      ano    uf sexo  idade cor   vinculo renda jornada instrucao           
#>    <int> <int> <chr> <dbl> <chr> <chr>   <dbl>   <dbl> <chr>               
#>  1  2012    11 1        18 1     02        350      30 Médio incompleto ou…
#>  2  2012    11 1        34 4     09       1500      44 Fundamental complet…
#>  3  2012    11 1        39 4     01        750      48 Fundamental incompl…
#>  4  2012    11 1        19 1     01        650      46 Médio completo ou e…
#>  5  2012    11 1        42 4     09       1200      48 Fundamental complet…
#>  6  2012    11 1        19 1     02        765      44 Fundamental incompl…
#>  7  2012    11 1        49 1     09        900      48 Fundamental complet…
#>  8  2012    11 1        45 1     09        800      56 Fundamental complet…
#>  9  2012    11 1        38 4     09       1500      50 Fundamental complet…
#> 10  2012    11 1        23 4     09        800      72 Médio incompleto ou…
#> # … with 11,034 more rows
```
…
